%YAML 1.1
%TAG !u! tag:unity3d.com,2011:
--- !u!21 &2100000
Material:
  serializedVersion: 6
  m_ObjectHideFlags: 0
  m_CorrespondingSourceObject: {fileID: 0}
  m_PrefabInternal: {fileID: 0}
  m_Name: Xenoku_Prod_Environ_Window Type 01_UV_V001
  m_Shader: {fileID: 4800000, guid: 10cae4c07e479ee42a53ce28af52e7f0, type: 3}
  m_ShaderKeywords: 
  m_LightmapFlags: 4
  m_EnableInstancingVariants: 0
  m_DoubleSidedGI: 0
  m_CustomRenderQueue: -1
  stringTagMap: {}
  disabledShaderPasses: []
  m_SavedProperties:
    serializedVersion: 3
    m_TexEnvs:
    - _MainTex:
        m_Texture: {fileID: 2800000, guid: d94fe4139d184144b97fc284f7d11cdf, type: 3}
        m_Scale: {x: 1, y: 1}
        m_Offset: {x: 0, y: 0}
    m_Floats:
    - _DiffuseThreshold: 0.15
    - _OutlineThickness: 0
    - _Shininess: 1
    m_Colors:
    - _SpecColor: {r: 1, g: 1, b: 1, a: 1}
    - _UnlitColor: {r: 0.25, g: 0.25, b: 0.25, a: 1}
